%YAML 1.1
%TAG !u! tag:unity3d.com,2011:
--- !u!114 &11400000
MonoBehaviour:
  m_ObjectHideFlags: 0
  m_CorrespondingSourceObject: {fileID: 0}
  m_PrefabInstance: {fileID: 0}
  m_PrefabAsset: {fileID: 0}
  m_GameObject: {fileID: 0}
  m_Enabled: 1
  m_EditorHideFlags: 0
  m_Script: {fileID: 11500000, guid: 499f9dc307232184ca30934e3fc72ee2, type: 3}
  m_Name: PlayerIdle State
  m_EditorClassIdentifier: 
  _entryActions:
  - {fileID: 11400000, guid: e7a78fe2c79026b4d8a2d3dd433ef478, type: 2}
  _exitActions: []
  _physicsActions: []
  _stateActions: []
