%YAML 1.1
%TAG !u! tag:unity3d.com,2011:
--- !u!114 &11400000
MonoBehaviour:
  m_ObjectHideFlags: 0
  m_CorrespondingSourceObject: {fileID: 0}
  m_PrefabInstance: {fileID: 0}
  m_PrefabAsset: {fileID: 0}
  m_GameObject: {fileID: 0}
  m_Enabled: 1
  m_EditorHideFlags: 0
  m_Script: {fileID: 11500000, guid: 8fe289125b8f4cd6b0b7f32bb1382ebe, type: 3}
  m_Name: IsDashInput Condition
  m_EditorClassIdentifier: 
  inputActionAsset: {fileID: -944628639613478452, guid: c3c55e4f715cce543b8deca52b54f872, type: 3}
  actionName: Dash
