%YAML 1.1
%TAG !u! tag:unity3d.com,2011:
--- !u!114 &11400000
MonoBehaviour:
  m_ObjectHideFlags: 0
  m_CorrespondingSourceObject: {fileID: 0}
  m_PrefabInstance: {fileID: 0}
  m_PrefabAsset: {fileID: 0}
  m_GameObject: {fileID: 0}
  m_Enabled: 1
  m_EditorHideFlags: 0
  m_Script: {fileID: 11500000, guid: 3723f4f99a2a57c4ea4938478eaca99c, type: 3}
  m_Name: Dice
  m_EditorClassIdentifier: 
  _sideSprites:
  - {fileID: 21300000, guid: a90435b8c28eebb468f851740947574b, type: 3}
  - {fileID: 21300000, guid: baaa443031c9cee438aa25b3b1340f1f, type: 3}
  - {fileID: 21300000, guid: 3e1024583e288214488fa389d33ccc39, type: 3}
  - {fileID: 21300000, guid: 9f0f6eb591875dc4e87109e200e98f13, type: 3}
  - {fileID: 21300000, guid: 2d4815d58676053499819373e2bf72ba, type: 3}
  - {fileID: 21300000, guid: 00decd04c1b9b854cbb8b823255a98c0, type: 3}
